{
  "web": {
    "client_id": "372136808206-lhiip7ognrrh2ku9igqtmp05fqs1s2ff.apps.googleusercontent.com",
    "api_key" : "AIzaSyBIsWTPR1WIQzSiyh5YGpZ0WtFB89v9bmQ",
    "project_id": "api-project-372136808206",
    "auth_uri": "https://accounts.google.com/o/oauth2/auth",
    "token_uri": "https://accounts.google.com/o/oauth2/token",
    "auth_provider_x509_cert_url": "https://www.googleapis.com/oauth2/v1/certs",
    "client_secret": "YqQWLGkZbkA65Y-NTKCpuS9X",
    "scopes":  [
        "https://www.googleapis.com/auth/youtube"
    ]
  }
}